{
 "Grove_LCD_RGB_Backlight.LCD_RGB_Backlight_Version": "Versionsnummer",
 "Grove_LCD_RGB_Backlight.LCD_RGB_Backlight_INIT": "Display initialisieren, muss vor der Verwendung erfolgen!",
 "Grove_LCD_RGB_Backlight.LCD_RGB_Backlight_ClearScreen":"Loescht den Inhalt des LCD",
 "Grove_LCD_RGB_Backlight.LCD_RGB_Backlight_Home":"Setzt die Cursor Position wieder an Anfang",
 "Grove_LCD_RGB_Backlight.LCD_RGB_Backlight_NoCursor":"Cursor wird nicht mehr angezeigt",
 "Grove_LCD_RGB_Backlight.LCD_RGB_Backlight_BlinkCursor":"Cursor wird als blinkender Block dargestellt",
 "Grove_LCD_RGB_Backlight.LCD_RGB_Backlight_UnderscoreCursor":"Cursor wird als Linie dargestellt",
 "Grove_LCD_RGB_Backlight.LCD_RGB_Backlight_Cursor":"Setze die Cursor-Position auf Spalte, Zeile",
 "Grove_LCD_RGB_Backlight.LCD_RGB_Backlight_Write":"Schreibt Text auf das LCD",
 "Grove_LCD_RGB_Backlight.LCD_RGB_Backlight_WriteAt":"Schreibt den Text auf das LCD bei der angegebenen Spalte und Zeile",
 "Grove_LCD_RGB_Backlight.LCD_RGB_Backlight_CharAt":"Setze das Zeichen des Zeichencodes 'ascii' auf Spalte und Zeile des Displays",
 "Grove_LCD_RGB_Backlight.LCD_RGB_Backlight_backlightOn":"schalte die Hintergrundbeleuchtung ein",
 "Grove_LCD_RGB_Backlight.LCD_RGB_Backlight_backlightColor":"mische die Hintergrundbeleuchtungsfarbe aus rot, gruen und blau",
 "Grove_LCD_RGB_Backlight.LCD_RGB_Backlight_backlightOff":"Deaktivere die Hintergrundbeleuchtung",
 "Grove_LCD_RGB_Backlight.LCD_RGB_Backlight_backlight_Blink":"lasse die Hintergrundbeleuchtung blinken",
 "Grove_LCD_RGB_Backlight.LCD_RGB_Backlight_backlight_StopBlink":"stoppe blinkende Hintergrundbeleuchtung"
 }
